<?xml version="1.0" encoding="UTF-8" standalone="no"?>
<!-- Created with Inkscape (http://www.inkscape.org/) -->

<svg
   xmlns:dc="http://purl.org/dc/elements/1.1/"
   xmlns:cc="http://creativecommons.org/ns#"
   xmlns:rdf="http://www.w3.org/1999/02/22-rdf-syntax-ns#"
   xmlns:svg="http://www.w3.org/2000/svg"
   xmlns="http://www.w3.org/2000/svg"
   xmlns:sodipodi="http://sodipodi.sourceforge.net/DTD/sodipodi-0.dtd"
   xmlns:inkscape="http://www.inkscape.org/namespaces/inkscape"
   width="254.71809mm"
   height="254.61809mm"
   viewBox="0 0 254.71809 254.61808"
   version="1.1"
   id="svg8"
   sodipodi:docname="ship-circle-rotate.svg"
   inkscape:version="0.92.3 (2405546, 2018-03-11)"
   inkscape:export-filename="C:\Users\T-Rex\Google Drive\VSCode\lostinspace\src\components\svg\ship-circle-rotate.png"
   inkscape:export-xdpi="64.370003"
   inkscape:export-ydpi="64.370003">
  <defs
     id="defs2" />
  <sodipodi:namedview
     id="base"
     pagecolor="#ffffff"
     bordercolor="#666666"
     borderopacity="1.0"
     inkscape:pageopacity="0.0"
     inkscape:pageshadow="2"
     inkscape:zoom="0.35"
     inkscape:cx="-645.82022"
     inkscape:cy="480.71403"
     inkscape:document-units="mm"
     inkscape:current-layer="layer1"
     showgrid="true"
     inkscape:pagecheckerboard="true"
     fit-margin-top="-0.1"
     fit-margin-left="0"
     fit-margin-right="0"
     fit-margin-bottom="0"
     inkscape:window-width="2160"
     inkscape:window-height="1346"
     inkscape:window-x="-11"
     inkscape:window-y="-11"
     inkscape:window-maximized="1">
    <inkscape:grid
       type="xygrid"
       id="grid29"
       originx="32.505944"
       originy="-20.977728" />
  </sodipodi:namedview>
  <metadata
     id="metadata5">
    <rdf:RDF>
      <cc:Work
         rdf:about="">
        <dc:format>image/svg+xml</dc:format>
        <dc:type
           rdf:resource="http://purl.org/dc/dcmitype/StillImage" />
        <dc:title />
      </cc:Work>
    </rdf:RDF>
  </metadata>
  <g
     inkscape:groupmode="layer"
     id="layer2"
     inkscape:label="Circle"
     transform="translate(40.027626,30.251532)">
    <circle
       style="fill:#ffffff;fill-opacity:1;stroke-width:0.26458332"
       id="path21"
       cx="87.331421"
       cy="97.007515"
       r="127.35905" />
  </g>
  <g
     inkscape:label="Ship"
     inkscape:groupmode="layer"
     id="layer1"
     transform="translate(32.505943,-21.404161)">
    <g
       id="g3740"
       transform="rotate(-45,96.873502,163.96363)">
      <ellipse
         style="fill:#000000;stroke-width:0.23450674"
         ry="98.651787"
         rx="84.288689"
         cy="146.1875"
         cx="106.21131"
         id="path10" />
      <ellipse
         ry="35.529762"
         rx="16.252975"
         cy="196.45833"
         cx="27.894638"
         id="path12"
         style="fill:#000000;stroke-width:0.26458332" />
      <ellipse
         ry="35.529762"
         rx="16.252975"
         cy="197.1387"
         cx="184.4523"
         id="path12-0"
         style="fill:#000000;stroke-width:0.26458332" />
      <circle
         r="34.773808"
         cy="121.99703"
         cx="107.34523"
         id="path31"
         style="fill:#ffffff;stroke-width:0.2173363" />
    </g>
  </g>
</svg>
